// Jest Snapshot v1, https://goo.gl/fbAQLP

exports[`sets sumbit button to Save when not saving 1`] = `
<form
  onSubmit={[MockFunction]}
>
  <h2>
    Customer Details
  </h2>
  <div
    className="form-group"
  >
    <label
      htmlFor="id"
    >
      ID
    </label>
    <div
      className="field"
    >
      <input
        className="form-control"
        name="id"
        onChange={[MockFunction]}
        type="text"
        value="1"
      />
    </div>
  </div>
  <div
    className="form-group"
  >
    <label
      htmlFor="fname"
    >
      First Name
    </label>
    <div
      className="field"
    >
      <input
        className="form-control"
        name="fname"
        onChange={[MockFunction]}
        type="text"
        value="Ann"
      />
    </div>
  </div>
  <div
    className="form-group"
  >
    <label
      htmlFor="lname"
    >
      Last Name
    </label>
    <div
      className="field"
    >
      <input
        className="form-control"
        name="lname"
        onChange={[MockFunction]}
        type="text"
        value="Elk"
      />
    </div>
  </div>
  <div
    className="form-group"
  >
    <label
      htmlFor="addressLine"
    >
      Address Line
    </label>
    <div
      className="field"
    >
      <input
        className="form-control"
        name="addressLine"
        onChange={[MockFunction]}
        type="text"
        value="100 New Town Street"
      />
    </div>
  </div>
  <div
    className="form-group"
  >
    <label
      htmlFor="city"
    >
      City
    </label>
    <div
      className="field"
    >
      <input
        className="form-control"
        name="city"
        onChange={[MockFunction]}
        type="text"
        value="New Town"
      />
    </div>
  </div>
  <div
    className="form-group"
  >
    <label
      htmlFor="zip"
    >
      Zip
    </label>
    <div
      className="field"
    >
      <input
        className="form-control"
        name="zip"
        onChange={[MockFunction]}
        type="text"
        value="60090"
      />
    </div>
  </div>
  <div
    className="form-group"
  >
    <label
      htmlFor="email"
    >
      Email
    </label>
    <div
      className="field"
    >
      <input
        className="form-control"
        name="email"
        onChange={[MockFunction]}
        type="text"
        value="ann.elk@gmail.com"
      />
    </div>
  </div>
  <div>
    <label
      htmlFor="dnsFlag"
    >
      Do Not Solicit
    </label>
  </div>
  <div>
    <select
      id="dnsFlag"
      name="dnsFlag"
      onChange={[MockFunction]}
      value="False"
    >
      <option
        value="False"
      >
        False
      </option>
      <option
        value="True"
      >
        True
      </option>
    </select>
  </div>
  <div
    className="form-group"
  >
    <label
      htmlFor="status"
    >
      Customer Status
    </label>
    <div
      className="field"
    >
      <input
        className="form-control"
        name="status"
        onChange={[MockFunction]}
        type="text"
        value="Active"
      />
    </div>
  </div>
  <div
    className="form-group"
  >
    <label
      htmlFor="linkedAgent"
    >
      Customer's Agent
    </label>
    <div
      className="field"
    >
      <input
        className="form-control"
        name="linkedAgent"
        onChange={[MockFunction]}
        type="text"
        value="Pierce Doyle"
      />
    </div>
  </div>
  <h4>
    Interaction History
  </h4>
  <ul
    className="list-group"
  >
    <li
      className="list-group-item"
    >
      <div
        className="row"
      >
        <div
          className="col-sm font-weight-bold"
        >
          ID
        </div>
        <div
          className="col-sm font-weight-bold"
        >
          Customer ID 
        </div>
        <div
          className="col-sm font-weight-bold"
        >
          Activity Code
        </div>
        <div
          className="col-sm font-weight-bold"
        >
          Activity Description
        </div>
        <div
          className="col-sm font-weight-bold"
        >
          Activity Timestamp
        </div>
      </div>
    </li>
    <li
      className="list-group-item"
    >
      <div
        className="row"
      >
        <div
          className="col-sm"
        >
          1
           
        </div>
        <div
          className="col-sm"
        >
          1
           
        </div>
        <div
          className="col-sm"
        >
          1001
           
        </div>
        <div
          className="col-sm"
        >
          Account Created
           
        </div>
        <div
          className="col-sm"
        >
          2020-08-08T18:20:00+00:00
           
        </div>
      </div>
    </li>
    <li
      className="list-group-item"
    >
      <div
        className="row"
      >
        <div
          className="col-sm"
        >
          2
           
        </div>
        <div
          className="col-sm"
        >
          2
           
        </div>
        <div
          className="col-sm"
        >
          1001
           
        </div>
        <div
          className="col-sm"
        >
          Account Created
           
        </div>
        <div
          className="col-sm"
        >
          2020-09-01T18:20:00+00:00
           
        </div>
      </div>
    </li>
    <li
      className="list-group-item"
    >
      <div
        className="row"
      >
        <div
          className="col-sm"
        >
          3
           
        </div>
        <div
          className="col-sm"
        >
          2
           
        </div>
        <div
          className="col-sm"
        >
          1002
           
        </div>
        <div
          className="col-sm"
        >
          Email Updated from henry.8@gmail.com to henry.8@gmail.com
           
        </div>
        <div
          className="col-sm"
        >
          2020-09-02T18:20:00+00:00
           
        </div>
      </div>
    </li>
    <li
      className="list-group-item"
    >
      <div
        className="row"
      >
        <div
          className="col-sm"
        >
          4
           
        </div>
        <div
          className="col-sm"
        >
          1
           
        </div>
        <div
          className="col-sm"
        >
          1003
           
        </div>
        <div
          className="col-sm"
        >
          Phone Number Updated from 555-8484-848 to 848-8484-848
           
        </div>
        <div
          className="col-sm"
        >
          2020-08-08T18:20:00+00:00
           
        </div>
      </div>
    </li>
  </ul>
  <button
    className="btn btn-primary"
    disabled={false}
    type="submit"
  >
    Save
  </button>
</form>
`;

exports[`sets sumbit button to Saving... when saving 1`] = `
<form
  onSubmit={[MockFunction]}
>
  <h2>
    Customer Details
  </h2>
  <div
    className="form-group"
  >
    <label
      htmlFor="id"
    >
      ID
    </label>
    <div
      className="field"
    >
      <input
        className="form-control"
        name="id"
        onChange={[MockFunction]}
        type="text"
        value="1"
      />
    </div>
  </div>
  <div
    className="form-group"
  >
    <label
      htmlFor="fname"
    >
      First Name
    </label>
    <div
      className="field"
    >
      <input
        className="form-control"
        name="fname"
        onChange={[MockFunction]}
        type="text"
        value="Ann"
      />
    </div>
  </div>
  <div
    className="form-group"
  >
    <label
      htmlFor="lname"
    >
      Last Name
    </label>
    <div
      className="field"
    >
      <input
        className="form-control"
        name="lname"
        onChange={[MockFunction]}
        type="text"
        value="Elk"
      />
    </div>
  </div>
  <div
    className="form-group"
  >
    <label
      htmlFor="addressLine"
    >
      Address Line
    </label>
    <div
      className="field"
    >
      <input
        className="form-control"
        name="addressLine"
        onChange={[MockFunction]}
        type="text"
        value="100 New Town Street"
      />
    </div>
  </div>
  <div
    className="form-group"
  >
    <label
      htmlFor="city"
    >
      City
    </label>
    <div
      className="field"
    >
      <input
        className="form-control"
        name="city"
        onChange={[MockFunction]}
        type="text"
        value="New Town"
      />
    </div>
  </div>
  <div
    className="form-group"
  >
    <label
      htmlFor="zip"
    >
      Zip
    </label>
    <div
      className="field"
    >
      <input
        className="form-control"
        name="zip"
        onChange={[MockFunction]}
        type="text"
        value="60090"
      />
    </div>
  </div>
  <div
    className="form-group"
  >
    <label
      htmlFor="email"
    >
      Email
    </label>
    <div
      className="field"
    >
      <input
        className="form-control"
        name="email"
        onChange={[MockFunction]}
        type="text"
        value="ann.elk@gmail.com"
      />
    </div>
  </div>
  <div>
    <label
      htmlFor="dnsFlag"
    >
      Do Not Solicit
    </label>
  </div>
  <div>
    <select
      id="dnsFlag"
      name="dnsFlag"
      onChange={[MockFunction]}
      value="False"
    >
      <option
        value="False"
      >
        False
      </option>
      <option
        value="True"
      >
        True
      </option>
    </select>
  </div>
  <div
    className="form-group"
  >
    <label
      htmlFor="status"
    >
      Customer Status
    </label>
    <div
      className="field"
    >
      <input
        className="form-control"
        name="status"
        onChange={[MockFunction]}
        type="text"
        value="Active"
      />
    </div>
  </div>
  <div
    className="form-group"
  >
    <label
      htmlFor="linkedAgent"
    >
      Customer's Agent
    </label>
    <div
      className="field"
    >
      <input
        className="form-control"
        name="linkedAgent"
        onChange={[MockFunction]}
        type="text"
        value="Pierce Doyle"
      />
    </div>
  </div>
  <h4>
    Interaction History
  </h4>
  <ul
    className="list-group"
  >
    <li
      className="list-group-item"
    >
      <div
        className="row"
      >
        <div
          className="col-sm font-weight-bold"
        >
          ID
        </div>
        <div
          className="col-sm font-weight-bold"
        >
          Customer ID 
        </div>
        <div
          className="col-sm font-weight-bold"
        >
          Activity Code
        </div>
        <div
          className="col-sm font-weight-bold"
        >
          Activity Description
        </div>
        <div
          className="col-sm font-weight-bold"
        >
          Activity Timestamp
        </div>
      </div>
    </li>
    <li
      className="list-group-item"
    >
      <div
        className="row"
      >
        <div
          className="col-sm"
        >
          1
           
        </div>
        <div
          className="col-sm"
        >
          1
           
        </div>
        <div
          className="col-sm"
        >
          1001
           
        </div>
        <div
          className="col-sm"
        >
          Account Created
           
        </div>
        <div
          className="col-sm"
        >
          2020-08-08T18:20:00+00:00
           
        </div>
      </div>
    </li>
    <li
      className="list-group-item"
    >
      <div
        className="row"
      >
        <div
          className="col-sm"
        >
          2
           
        </div>
        <div
          className="col-sm"
        >
          2
           
        </div>
        <div
          className="col-sm"
        >
          1001
           
        </div>
        <div
          className="col-sm"
        >
          Account Created
           
        </div>
        <div
          className="col-sm"
        >
          2020-09-01T18:20:00+00:00
           
        </div>
      </div>
    </li>
    <li
      className="list-group-item"
    >
      <div
        className="row"
      >
        <div
          className="col-sm"
        >
          3
           
        </div>
        <div
          className="col-sm"
        >
          2
           
        </div>
        <div
          className="col-sm"
        >
          1002
           
        </div>
        <div
          className="col-sm"
        >
          Email Updated from henry.8@gmail.com to henry.8@gmail.com
           
        </div>
        <div
          className="col-sm"
        >
          2020-09-02T18:20:00+00:00
           
        </div>
      </div>
    </li>
    <li
      className="list-group-item"
    >
      <div
        className="row"
      >
        <div
          className="col-sm"
        >
          4
           
        </div>
        <div
          className="col-sm"
        >
          1
           
        </div>
        <div
          className="col-sm"
        >
          1003
           
        </div>
        <div
          className="col-sm"
        >
          Phone Number Updated from 555-8484-848 to 848-8484-848
           
        </div>
        <div
          className="col-sm"
        >
          2020-08-08T18:20:00+00:00
           
        </div>
      </div>
    </li>
  </ul>
  <button
    className="btn btn-primary"
    disabled={true}
    type="submit"
  >
    Saving...
  </button>
</form>
`;
